…
Show a few rows of the dataset
------------------------------


```r
dtTidy
```

```
## Source: local data frame [11,880 x 11]
## Groups: subject, activity, domain, acceleration, instrument, jerk, magnitude, variable [?]
## 
##    subject activity domain acceleration instrument   jerk magnitude
##      <int>   <fctr> <fctr>       <fctr>     <fctr> <fctr>    <fctr>
## 1        1   LAYING   time           NA  gyroscope     NA        NA
## 2        1   LAYING   time           NA  gyroscope     NA        NA
## 3        1   LAYING   time           NA  gyroscope     NA        NA
## 4        1   LAYING   time           NA  gyroscope     NA        NA
## 5        1   LAYING   time           NA  gyroscope     NA        NA
## 6        1   LAYING   time           NA  gyroscope     NA        NA
## 7        1   LAYING   time           NA  gyroscope     NA magnitude
## 8        1   LAYING   time           NA  gyroscope     NA magnitude
## 9        1   LAYING   time           NA  gyroscope   jerk        NA
## 10       1   LAYING   time           NA  gyroscope   jerk        NA
## # ... with 11,870 more rows, and 4 more variables: variable <fctr>,
## #   axis <fctr>, count <int>, average <dbl>
```
…
